[
	[
		'symbol_table.cgraph_count': [
			'1',
			'%d'
		],
		'symbol_table.cgraph_max_uid': [
			'2',
			'%d'
		],
		'symbol_table.cgraph_max_summary_id': [
			'0',
			'%d'
		],
		'symbol_table.edges_count': [
			'0',
			'%d'
		],
		'symbol_table.edges_max_uid': [
			'1',
			'%d'
		],
		'symbol_table.edges_max_summary_id': [
			'0',
			'%d'
		],
		'symbol_table.symbol_suffix_separator': [
			'd5121a',
			'%02x'
		],
		'symbol_table.order': [
			'1',
			'%d'
		],
		'symbol_table.max_unit': [
			'0',
			'%d'
		],
		'symbol_table.global_info_ready': [
			'0',
			'%d'
		],
		'symbol_table.state': [
			'0',
			'%d'
		],
		'symbol_table.function_flags_ready': [
			'0',
			'%d'
		],
		'symbol_table.cpp_implicit_aliases_done': [
			'0',
			'%d'
		],
		'symbol_table.nodes': [
			[
				'symtab_node.type': [
					'01',
					'%02x'
				],
				'symtab_node.resolution': [
					'00',
					'%02x'
				],
				'symtab_node.flags': [
					'af010c01',
					'%06x'
				],
				'symtab_node.order': [
					'0',
					'%d'
				],
				'symtab_node.$decl': [
					'selector': [
						'FUNCTION_DECL',
						'%s'
					],
					'len': [
						'0',
						'%d'
					],
					'tcc': [
						'tcc_declaration',
						'%s'
					],
					'tnl': [
						'tnl_function_decl',
						'%s'
					],
					'addr': [
						'00007f2bb519d200',
						'%x'
					],
					'tree_base.code': [
						'0021',
						'%04x'
					],
					'tree_base.flags': [
						'0c00',
						'%04x'
					],
					'tree_base.special': [
						'00000000',
						'%08x'
					],
					'tree_decl_minimal.locus': [
						'258915',
						'%d'
					],
					'tree_decl_minimal.uid': [
						'1979',
						'%d'
					],
					'tree_decl_common.flags': [
						'0001000000000f',
						'%014llx'
					],
					'tree_decl_common.pt_uid': [
						'-1',
						'%d'
					],
					'tree_decl_with_vis.flags': [
						'000000',
						'%06lx'
					],
					'tree_function_decl.function_code': [
						'0',
						'%d'
					],
					'tree_function_decl.flags': [
						'afafafaf00000800',
						'%06lx'
					],
					'tree_typed.$type': [
						'selector': [
							'FUNCTION_TYPE',
							'%s'
						],
						'len': [
							'0',
							'%d'
						],
						'tcc': [
							'tcc_type',
							'%s'
						],
						'tnl': [
							'tnl_type_non_common',
							'%s'
						],
						'addr': [
							'00007f2bb508ec78',
							'%x'
						]
					],
					'tree_common.$chain': [
					],
					'tree_decl_minimal.$name': [
						'selector': [
							'IDENTIFIER_NODE',
							'%s'
						],
						'len': [
							'0',
							'%d'
						],
						'tcc': [
							'tcc_exceptional',
							'%s'
						],
						'tnl': [
							'tnl_identifier',
							'%s'
						],
						'addr': [
							'00007f2bb51ae2d0',
							'%x'
						],
						'tree_base.code': [
							'0001',
							'%04x'
						],
						'tree_base.flags': [
							'0000',
							'%04x'
						],
						'tree_base.special': [
							'00000000',
							'%08x'
						],
						'tree_identifier.id.len': [
							'4',
							'%d'
						],
						'tree_identifier.id.hash_value': [
							'-3964053',
							'%d'
						],
						'tree_identifier.id.str[i]': [
							[
								'100',
								'101',
								'109',
								'111'
							],
							'%d'
						],
						'tree_typed.$type': [
						],
						'tree_common.$chain': [
						]
					],
					'tree_decl_minimal.$context': [
						'selector': [
							'TRANSLATION_UNIT_DECL',
							'%s'
						],
						'len': [
							'0',
							'%d'
						],
						'tcc': [
							'tcc_declaration',
							'%s'
						],
						'tnl': [
							'tnl_translation_unit_decl',
							'%s'
						],
						'addr': [
							'00007f2bb506cbb8',
							'%x'
						],
						'tree_base.code': [
							'002e',
							'%04x'
						],
						'tree_base.flags': [
							'0000',
							'%04x'
						],
						'tree_base.special': [
							'00000000',
							'%08x'
						],
						'tree_decl_minimal.locus': [
							'0',
							'%d'
						],
						'tree_decl_minimal.uid': [
							'1985',
							'%d'
						],
						'tree_decl_common.flags': [
							'00004000000000',
							'%014llx'
						],
						'tree_decl_common.pt_uid': [
							'-1',
							'%d'
						],
						'tree_translation_unit_decl.language': [
							'GNU',
							'%s'
						],
						'tree_typed.$type': [
						],
						'tree_common.$chain': [
						],
						'tree_decl_minimal.$name': [
							'selector': [
								'IDENTIFIER_NODE',
								'%s'
							],
							'len': [
								'0',
								'%d'
							],
							'tcc': [
								'tcc_exceptional',
								'%s'
							],
							'tnl': [
								'tnl_identifier',
								'%s'
							],
							'addr': [
								'00007f2bb51ae3c0',
								'%x'
							],
							'tree_base.code': [
								'0001',
								'%04x'
							],
							'tree_base.flags': [
								'0000',
								'%04x'
							],
							'tree_base.special': [
								'00000000',
								'%08x'
							],
							'tree_identifier.id.len': [
								'6',
								'%d'
							],
							'tree_identifier.id.hash_value': [
								'-614787186',
								'%d'
							],
							'tree_identifier.id.str[i]': [
								[
									'100',
									'101',
									'109',
									'111',
									'46',
									'99'
								],
								'%d'
							],
							'tree_typed.$type': [
							],
							'tree_common.$chain': [
							]
						],
						'tree_decl_minimal.$context': [
						],
						'tree_decl_common.$size': [
						],
						'tree_decl_common.$size_unit': [
						],
						'tree_decl_common.$initial': [
							'selector': [
								'BLOCK',
								'%s'
							],
							'len': [
								'0',
								'%d'
							],
							'tcc': [
								'tcc_exceptional',
								'%s'
							],
							'tnl': [
								'tnl_block',
								'%s'
							],
							'addr': [
								'00007f2bb51a0480',
								'%x'
							],
							'tree_base.code': [
								'0004',
								'%04x'
							],
							'tree_base.flags': [
								'0100',
								'%04x'
							],
							'tree_base.special': [
								'00000000',
								'%08x'
							],
							'tree_block.block_num': [
								'0',
								'%d'
							],
							'tree_block.locus': [
								'0',
								'%d'
							],
							'tree_block.end_locus': [
								'0',
								'%d'
							],
							'tree_block.die': [
								'0000000000000000',
								'%016llx'
							],
							'tree_block.$chain': [
							],
							'tree_block.$vars': [
							],
							'tree_block.$subblocks': [
							],
							'tree_block.$supercontext': [
								'ref': '00007f2bb506cbb8'
							],
							'tree_block.$abstract_origin': [
							],
							'tree_block.$fragment_origin': [
							],
							'tree_block.$fragment_chain': [
							]
						],
						'tree_decl_common.$attributes': [
						],
						'tree_decl_common.$abstract_origin': [
						]
					],
					'tree_decl_common.$size': [
					],
					'tree_decl_common.$size_unit': [
					],
					'tree_decl_common.$initial': [
						'selector': [
							'BLOCK',
							'%s'
						],
						'len': [
							'0',
							'%d'
						],
						'tcc': [
							'tcc_exceptional',
							'%s'
						],
						'tnl': [
							'tnl_block',
							'%s'
						],
						'addr': [
							'00007f2bb51a0420',
							'%x'
						],
						'tree_base.code': [
							'0004',
							'%04x'
						],
						'tree_base.flags': [
							'0100',
							'%04x'
						],
						'tree_base.special': [
							'00000000',
							'%08x'
						],
						'tree_block.block_num': [
							'0',
							'%d'
						],
						'tree_block.locus': [
							'0',
							'%d'
						],
						'tree_block.end_locus': [
							'0',
							'%d'
						],
						'tree_block.die': [
							'0000000000000000',
							'%016llx'
						],
						'tree_block.$chain': [
						],
						'tree_block.$vars': [
							'selector': [
								'VAR_DECL',
								'%s'
							],
							'len': [
								'0',
								'%d'
							],
							'tcc': [
								'tcc_declaration',
								'%s'
							],
							'tnl': [
								'tnl_var_decl',
								'%s'
							],
							'addr': [
								'00007f2bb506dbd0',
								'%x'
							],
							'tree_base.code': [
								'0024',
								'%04x'
							],
							'tree_base.flags': [
								'0100',
								'%04x'
							],
							'tree_base.special': [
								'00000000',
								'%08x'
							],
							'tree_decl_minimal.locus': [
								'262976',
								'%d'
							],
							'tree_decl_minimal.uid': [
								'1981',
								'%d'
							],
							'tree_decl_common.flags': [
								'00018040000011',
								'%014llx'
							],
							'tree_decl_common.pt_uid': [
								'-1',
								'%d'
							],
							'tree_decl_with_vis.flags': [
								'000000',
								'%06lx'
							],
							'tree_typed.$type': [
								'selector': [
									'INTEGER_TYPE',
									'%s'
								],
								'len': [
									'0',
									'%d'
								],
								'tcc': [
									'tcc_type',
									'%s'
								],
								'tnl': [
									'tnl_type_non_common',
									'%s'
								],
								'addr': [
									'00007f2bb507a5e8',
									'%x'
								]
							],
							'tree_common.$chain': [
							],
							'tree_decl_minimal.$name': [
								'selector': [
									'IDENTIFIER_NODE',
									'%s'
								],
								'len': [
									'0',
									'%d'
								],
								'tcc': [
									'tcc_exceptional',
									'%s'
								],
								'tnl': [
									'tnl_identifier',
									'%s'
								],
								'addr': [
									'00007f2bb51ae370',
									'%x'
								],
								'tree_base.code': [
									'0001',
									'%04x'
								],
								'tree_base.flags': [
									'0000',
									'%04x'
								],
								'tree_base.special': [
									'00000000',
									'%08x'
								],
								'tree_identifier.id.len': [
									'1',
									'%d'
								],
								'tree_identifier.id.hash_value': [
									'-14',
									'%d'
								],
								'tree_identifier.id.str[i]': [
									[
										'98'
									],
									'%d'
								],
								'tree_typed.$type': [
								],
								'tree_common.$chain': [
								]
							],
							'tree_decl_minimal.$context': [
								'ref': '00007f2bb519d200'
							],
							'tree_decl_common.$size': [
								'selector': [
									'INTEGER_CST',
									'%s'
								],
								'len': [
									'0',
									'%d'
								],
								'tcc': [
									'tcc_constant',
									'%s'
								],
								'tnl': [
									'tnl_int_cst',
									'%s'
								],
								'addr': [
									'00007f2bb505ef90',
									'%x'
								],
								'tree_base.code': [
									'001a',
									'%04x'
								],
								'tree_base.flags': [
									'0002',
									'%04x'
								],
								'tree_base.special': [
									'00010101',
									'%08x'
								],
								'tree_typed.$type': [
									'selector': [
										'INTEGER_TYPE',
										'%s'
									],
									'len': [
										'0',
										'%d'
									],
									'tcc': [
										'tcc_type',
										'%s'
									],
									'tnl': [
										'tnl_type_non_common',
										'%s'
									],
									'addr': [
										'00007f2bb507a0a8',
										'%x'
									]
								]
							],
							'tree_decl_common.$size_unit': [
								'selector': [
									'INTEGER_CST',
									'%s'
								],
								'len': [
									'0',
									'%d'
								],
								'tcc': [
									'tcc_constant',
									'%s'
								],
								'tnl': [
									'tnl_int_cst',
									'%s'
								],
								'addr': [
									'00007f2bb505efa8',
									'%x'
								],
								'tree_base.code': [
									'001a',
									'%04x'
								],
								'tree_base.flags': [
									'0002',
									'%04x'
								],
								'tree_base.special': [
									'00010101',
									'%08x'
								],
								'tree_typed.$type': [
									'selector': [
										'INTEGER_TYPE',
										'%s'
									],
									'len': [
										'0',
										'%d'
									],
									'tcc': [
										'tcc_type',
										'%s'
									],
									'tnl': [
										'tnl_type_non_common',
										'%s'
									],
									'addr': [
										'00007f2bb507a000',
										'%x'
									]
								]
							],
							'tree_decl_common.$initial': [
								'selector': [
									'INTEGER_CST',
									'%s'
								],
								'len': [
									'0',
									'%d'
								],
								'tcc': [
									'tcc_constant',
									'%s'
								],
								'tnl': [
									'tnl_int_cst',
									'%s'
								],
								'addr': [
									'00007f2bb507e108',
									'%x'
								],
								'tree_base.code': [
									'001a',
									'%04x'
								],
								'tree_base.flags': [
									'0002',
									'%04x'
								],
								'tree_base.special': [
									'00010101',
									'%08x'
								],
								'tree_typed.$type': [
									'ref': '00007f2bb507a5e8'
								]
							],
							'tree_decl_common.$attributes': [
							],
							'tree_decl_common.$abstract_origin': [
							],
							'tree_decl_with_vis.$assembler_name': [
							]
						],
						'tree_block.$subblocks': [
						],
						'tree_block.$supercontext': [
							'ref': '00007f2bb519d200'
						],
						'tree_block.$abstract_origin': [
						],
						'tree_block.$fragment_origin': [
						],
						'tree_block.$fragment_chain': [
						]
					],
					'tree_decl_common.$attributes': [
					],
					'tree_decl_common.$abstract_origin': [
					],
					'tree_decl_with_vis.$assembler_name': [
						'ref': '00007f2bb51ae2d0'
					],
					'tree_function_decl.$arguments': [
						'selector': [
							'PARM_DECL',
							'%s'
						],
						'len': [
							'0',
							'%d'
						],
						'tcc': [
							'tcc_declaration',
							'%s'
						],
						'tnl': [
							'tnl_parm_decl',
							'%s'
						],
						'addr': [
							'00007f2bb6745080',
							'%x'
						],
						'tree_base.code': [
							'0026',
							'%04x'
						],
						'tree_base.flags': [
							'0100',
							'%04x'
						],
						'tree_base.special': [
							'00000100',
							'%08x'
						],
						'tree_decl_minimal.locus': [
							'-2147483648',
							'%d'
						],
						'tree_decl_minimal.uid': [
							'1978',
							'%d'
						],
						'tree_decl_common.flags': [
							'00018040000011',
							'%014llx'
						],
						'tree_decl_common.pt_uid': [
							'-1',
							'%d'
						],
						'tree_typed.$type': [
							'selector': [
								'INTEGER_TYPE',
								'%s'
							],
							'len': [
								'0',
								'%d'
							],
							'tcc': [
								'tcc_type',
								'%s'
							],
							'tnl': [
								'tnl_type_non_common',
								'%s'
							],
							'addr': [
								'00007f2bb507a690',
								'%x'
							]
						],
						'tree_common.$chain': [
						],
						'tree_decl_minimal.$name': [
							'selector': [
								'IDENTIFIER_NODE',
								'%s'
							],
							'len': [
								'0',
								'%d'
							],
							'tcc': [
								'tcc_exceptional',
								'%s'
							],
							'tnl': [
								'tnl_identifier',
								'%s'
							],
							'addr': [
								'00007f2bb51ae320',
								'%x'
							],
							'tree_base.code': [
								'0001',
								'%04x'
							],
							'tree_base.flags': [
								'0000',
								'%04x'
							],
							'tree_base.special': [
								'00000000',
								'%08x'
							],
							'tree_identifier.id.len': [
								'1',
								'%d'
							],
							'tree_identifier.id.hash_value': [
								'-15',
								'%d'
							],
							'tree_identifier.id.str[i]': [
								[
									'97'
								],
								'%d'
							],
							'tree_typed.$type': [
							],
							'tree_common.$chain': [
							]
						],
						'tree_decl_minimal.$context': [
							'ref': '00007f2bb519d200'
						],
						'tree_decl_common.$size': [
							'ref': '00007f2bb505ef90'
						],
						'tree_decl_common.$size_unit': [
							'ref': '00007f2bb505efa8'
						],
						'tree_decl_common.$initial': [
							'ref': '00007f2bb507a690'
						],
						'tree_decl_common.$attributes': [
						],
						'tree_decl_common.$abstract_origin': [
						]
					],
					'tree_function_decl.$personality': [
					],
					'tree_function_decl.$function_specific_target': [
					],
					'tree_function_decl.$function_specific_optimization': [
					],
					'tree_function_decl.$saved_tree': [
						'selector': [
							'BIND_EXPR',
							'%s'
						],
						'len': [
							'3',
							'%d'
						],
						'tcc': [
							'tcc_expression',
							'%s'
						],
						'tnl': [
							'tnl_exp',
							'%s'
						],
						'addr': [
							'00007f2bb51bf690',
							'%x'
						],
						'tree_base.code': [
							'0042',
							'%04x'
						],
						'tree_base.flags': [
							'0001',
							'%04x'
						],
						'tree_base.special': [
							'00000000',
							'%08x'
						],
						'tree_exp.locus': [
							'259584',
							'%d'
						],
						'tree_typed.$type': [
							'selector': [
								'VOID_TYPE',
								'%s'
							],
							'len': [
								'0',
								'%d'
							],
							'tcc': [
								'tcc_type',
								'%s'
							],
							'tnl': [
								'tnl_type_non_common',
								'%s'
							],
							'addr': [
								'00007f2bb507af18',
								'%x'
							]
						],
						'tree_exp.$operands[i]': [
							[
								'ref': '00007f2bb506dbd0'
							],
							[
								'selector': [
									'STATEMENT_LIST',
									'%s'
								],
								'len': [
									'0',
									'%d'
								],
								'tcc': [
									'tcc_exceptional',
									'%s'
								],
								'tnl': [
									'tnl_statement_list',
									'%s'
								],
								'addr': [
									'00007f2bb51ac220',
									'%x'
								],
								'tree_base.code': [
									'009f',
									'%04x'
								],
								'tree_base.flags': [
									'0001',
									'%04x'
								],
								'tree_base.special': [
									'00000000',
									'%08x'
								],
								'tree_typed.$type': [
									'ref': '00007f2bb507af18'
								],
								'$tree_statement_list.nodes[i]': [
									[
										'selector': [
											'DECL_EXPR',
											'%s'
										],
										'len': [
											'1',
											'%d'
										],
										'tcc': [
											'tcc_statement',
											'%s'
										],
										'tnl': [
											'tnl_exp',
											'%s'
										],
										'addr': [
											'00007f2bb51ac240',
											'%x'
										],
										'tree_base.code': [
											'0090',
											'%04x'
										],
										'tree_base.flags': [
											'0001',
											'%04x'
										],
										'tree_base.special': [
											'00000000',
											'%08x'
										],
										'tree_exp.locus': [
											'262976',
											'%d'
										],
										'tree_typed.$type': [
											'ref': '00007f2bb507af18'
										],
										'tree_exp.$operands[i]': [
											[
												'ref': '00007f2bb506dbd0'
											]
										]
									],
									[
										'selector': [
											'STATEMENT_LIST',
											'%s'
										],
										'len': [
											'0',
											'%d'
										],
										'tcc': [
											'tcc_exceptional',
											'%s'
										],
										'tnl': [
											'tnl_statement_list',
											'%s'
										],
										'addr': [
											'00007f2bb51ac200',
											'%x'
										],
										'tree_base.code': [
											'009f',
											'%04x'
										],
										'tree_base.flags': [
											'0001',
											'%04x'
										],
										'tree_base.special': [
											'00000000',
											'%08x'
										],
										'tree_typed.$type': [
											'ref': '00007f2bb507af18'
										],
										'$tree_statement_list.nodes[i]': [
											[
												'selector': [
													'GOTO_EXPR',
													'%s'
												],
												'len': [
													'1',
													'%d'
												],
												'tcc': [
													'tcc_statement',
													'%s'
												],
												'tnl': [
													'tnl_exp',
													'%s'
												],
												'addr': [
													'00007f2bb51ac340',
													'%x'
												],
												'tree_base.code': [
													'0092',
													'%04x'
												],
												'tree_base.flags': [
													'0001',
													'%04x'
												],
												'tree_base.special': [
													'00000000',
													'%08x'
												],
												'tree_exp.locus': [
													'266880',
													'%d'
												],
												'tree_typed.$type': [
													'ref': '00007f2bb507af18'
												],
												'tree_exp.$operands[i]': [
													[
														'selector': [
															'LABEL_DECL',
															'%s'
														],
														'len': [
															'0',
															'%d'
														],
														'tcc': [
															'tcc_declaration',
															'%s'
														],
														'tnl': [
															'tnl_label_decl',
															'%s'
														],
														'addr': [
															'00007f2bb6745180',
															'%x'
														],
														'tree_base.code': [
															'0022',
															'%04x'
														],
														'tree_base.flags': [
															'0100',
															'%04x'
														],
														'tree_base.special': [
															'00000000',
															'%08x'
														],
														'tree_decl_minimal.locus': [
															'266880',
															'%d'
														],
														'tree_decl_minimal.uid': [
															'1983',
															'%d'
														],
														'tree_decl_common.flags': [
															'00004000011400',
															'%014llx'
														],
														'tree_decl_common.pt_uid': [
															'-1',
															'%d'
														],
														'tree_label_decl.label_decl_uid': [
															'-1',
															'%d'
														],
														'tree_label_decl.eh_landing_pad_nr': [
															'0',
															'%d'
														],
														'tree_typed.$type': [
															'ref': '00007f2bb507af18'
														],
														'tree_common.$chain': [
														],
														'tree_decl_minimal.$name': [
														],
														'tree_decl_minimal.$context': [
															'ref': '00007f2bb519d200'
														],
														'tree_decl_common.$size': [
														],
														'tree_decl_common.$size_unit': [
														],
														'tree_decl_common.$initial': [
														],
														'tree_decl_common.$attributes': [
														],
														'tree_decl_common.$abstract_origin': [
														]
													]
												]
											],
											[
												'selector': [
													'LABEL_EXPR',
													'%s'
												],
												'len': [
													'1',
													'%d'
												],
												'tcc': [
													'tcc_statement',
													'%s'
												],
												'tnl': [
													'tnl_exp',
													'%s'
												],
												'addr': [
													'00007f2bb51ac300',
													'%x'
												],
												'tree_base.code': [
													'0091',
													'%04x'
												],
												'tree_base.flags': [
													'0001',
													'%04x'
												],
												'tree_base.special': [
													'00000000',
													'%08x'
												],
												'tree_exp.locus': [
													'0',
													'%d'
												],
												'tree_typed.$type': [
													'ref': '00007f2bb507af18'
												],
												'tree_exp.$operands[i]': [
													[
														'selector': [
															'LABEL_DECL',
															'%s'
														],
														'len': [
															'0',
															'%d'
														],
														'tcc': [
															'tcc_declaration',
															'%s'
														],
														'tnl': [
															'tnl_label_decl',
															'%s'
														],
														'addr': [
															'00007f2bb6745200',
															'%x'
														],
														'tree_base.code': [
															'0022',
															'%04x'
														],
														'tree_base.flags': [
															'0000',
															'%04x'
														],
														'tree_base.special': [
															'00000000',
															'%08x'
														],
														'tree_decl_minimal.locus': [
															'266880',
															'%d'
														],
														'tree_decl_minimal.uid': [
															'1984',
															'%d'
														],
														'tree_decl_common.flags': [
															'00004000001400',
															'%014llx'
														],
														'tree_decl_common.pt_uid': [
															'-1',
															'%d'
														],
														'tree_label_decl.label_decl_uid': [
															'-1',
															'%d'
														],
														'tree_label_decl.eh_landing_pad_nr': [
															'0',
															'%d'
														],
														'tree_typed.$type': [
															'ref': '00007f2bb507af18'
														],
														'tree_common.$chain': [
														],
														'tree_decl_minimal.$name': [
														],
														'tree_decl_minimal.$context': [
															'ref': '00007f2bb519d200'
														],
														'tree_decl_common.$size': [
														],
														'tree_decl_common.$size_unit': [
														],
														'tree_decl_common.$initial': [
														],
														'tree_decl_common.$attributes': [
														],
														'tree_decl_common.$abstract_origin': [
														]
													]
												]
											],
											[
												'selector': [
													'MODIFY_EXPR',
													'%s'
												],
												'len': [
													'2',
													'%d'
												],
												'tcc': [
													'tcc_expression',
													'%s'
												],
												'tnl': [
													'tnl_exp',
													'%s'
												],
												'addr': [
													'00007f2bb5197e38',
													'%x'
												],
												'tree_base.code': [
													'003a',
													'%04x'
												],
												'tree_base.flags': [
													'0041',
													'%04x'
												],
												'tree_base.special': [
													'00000000',
													'%08x'
												],
												'tree_exp.locus': [
													'-2147483646',
													'%d'
												],
												'tree_typed.$type': [
													'ref': '00007f2bb507a5e8'
												],
												'tree_exp.$operands[i]': [
													[
														'ref': '00007f2bb506dbd0'
													],
													[
														'selector': [
															'LSHIFT_EXPR',
															'%s'
														],
														'len': [
															'2',
															'%d'
														],
														'tcc': [
															'tcc_binary',
															'%s'
														],
														'tnl': [
															'tnl_exp',
															'%s'
														],
														'addr': [
															'00007f2bb5197e10',
															'%x'
														],
														'tree_base.code': [
															'005e',
															'%04x'
														],
														'tree_base.flags': [
															'0000',
															'%04x'
														],
														'tree_base.special': [
															'00000000',
															'%08x'
														],
														'tree_exp.locus': [
															'267202',
															'%d'
														],
														'tree_typed.$type': [
															'ref': '00007f2bb507a5e8'
														],
														'tree_exp.$operands[i]': [
															[
																'ref': '00007f2bb506dbd0'
															],
															[
																'ref': '00007f2bb507e108'
															]
														]
													]
												]
											],
											[
												'selector': [
													'LABEL_EXPR',
													'%s'
												],
												'len': [
													'1',
													'%d'
												],
												'tcc': [
													'tcc_statement',
													'%s'
												],
												'tnl': [
													'tnl_exp',
													'%s'
												],
												'addr': [
													'00007f2bb51ac380',
													'%x'
												],
												'tree_base.code': [
													'0091',
													'%04x'
												],
												'tree_base.flags': [
													'0001',
													'%04x'
												],
												'tree_base.special': [
													'00000000',
													'%08x'
												],
												'tree_exp.locus': [
													'0',
													'%d'
												],
												'tree_typed.$type': [
													'ref': '00007f2bb507af18'
												],
												'tree_exp.$operands[i]': [
													[
														'ref': '00007f2bb6745180'
													]
												]
											],
											[
												'selector': [
													'COND_EXPR',
													'%s'
												],
												'len': [
													'3',
													'%d'
												],
												'tcc': [
													'tcc_expression',
													'%s'
												],
												'tnl': [
													'tnl_exp',
													'%s'
												],
												'addr': [
													'00007f2bb51bf6c0',
													'%x'
												],
												'tree_base.code': [
													'003d',
													'%04x'
												],
												'tree_base.flags': [
													'0001',
													'%04x'
												],
												'tree_base.special': [
													'00000000',
													'%08x'
												],
												'tree_exp.locus': [
													'-2147483647',
													'%d'
												],
												'tree_typed.$type': [
													'ref': '00007f2bb507af18'
												],
												'tree_exp.$operands[i]': [
													[
														'selector': [
															'LT_EXPR',
															'%s'
														],
														'len': [
															'2',
															'%d'
														],
														'tcc': [
															'tcc_comparison',
															'%s'
														],
														'tnl': [
															'tnl_exp',
															'%s'
														],
														'addr': [
															'00007f2bb5197de8',
															'%x'
														],
														'tree_base.code': [
															'006c',
															'%04x'
														],
														'tree_base.flags': [
															'0000',
															'%04x'
														],
														'tree_base.special': [
															'00000000',
															'%08x'
														],
														'tree_exp.locus': [
															'-2147483647',
															'%d'
														],
														'tree_typed.$type': [
															'ref': '00007f2bb507a5e8'
														],
														'tree_exp.$operands[i]': [
															[
																'selector': [
																	'NOP_EXPR',
																	'%s'
																],
																'len': [
																	'1',
																	'%d'
																],
																'tcc': [
																	'tcc_unary',
																	'%s'
																],
																'tnl': [
																	'tnl_exp',
																	'%s'
																],
																'addr': [
																	'00007f2bb51ac280',
																	'%x'
																],
																'tree_base.code': [
																	'007f',
																	'%04x'
																],
																'tree_base.flags': [
																	'0000',
																	'%04x'
																],
																'tree_base.special': [
																	'00000000',
																	'%08x'
																],
																'tree_exp.locus': [
																	'0',
																	'%d'
																],
																'tree_typed.$type': [
																	'ref': '00007f2bb507a690'
																],
																'tree_exp.$operands[i]': [
																	[
																		'ref': '00007f2bb506dbd0'
																	]
																]
															],
															[
																'ref': '00007f2bb6745080'
															]
														]
													],
													[
														'selector': [
															'GOTO_EXPR',
															'%s'
														],
														'len': [
															'1',
															'%d'
														],
														'tcc': [
															'tcc_statement',
															'%s'
														],
														'tnl': [
															'tnl_exp',
															'%s'
														],
														'addr': [
															'00007f2bb51ac320',
															'%x'
														],
														'tree_base.code': [
															'0092',
															'%04x'
														],
														'tree_base.flags': [
															'0001',
															'%04x'
														],
														'tree_base.special': [
															'00000000',
															'%08x'
														],
														'tree_exp.locus': [
															'0',
															'%d'
														],
														'tree_typed.$type': [
															'ref': '00007f2bb507af18'
														],
														'tree_exp.$operands[i]': [
															[
																'ref': '00007f2bb6745200'
															]
														]
													],
													[
														'selector': [
															'GOTO_EXPR',
															'%s'
														],
														'len': [
															'1',
															'%d'
														],
														'tcc': [
															'tcc_statement',
															'%s'
														],
														'tnl': [
															'tnl_exp',
															'%s'
														],
														'addr': [
															'00007f2bb51ac360',
															'%x'
														],
														'tree_base.code': [
															'0092',
															'%04x'
														],
														'tree_base.flags': [
															'0001',
															'%04x'
														],
														'tree_base.special': [
															'00000000',
															'%08x'
														],
														'tree_exp.locus': [
															'0',
															'%d'
														],
														'tree_typed.$type': [
															'ref': '00007f2bb507af18'
														],
														'tree_exp.$operands[i]': [
															[
																'selector': [
																	'LABEL_DECL',
																	'%s'
																],
																'len': [
																	'0',
																	'%d'
																],
																'tcc': [
																	'tcc_declaration',
																	'%s'
																],
																'tnl': [
																	'tnl_label_decl',
																	'%s'
																],
																'addr': [
																	'00007f2bb6745100',
																	'%x'
																],
																'tree_base.code': [
																	'0022',
																	'%04x'
																],
																'tree_base.flags': [
																	'0100',
																	'%04x'
																],
																'tree_base.special': [
																	'00000000',
																	'%08x'
																],
																'tree_decl_minimal.locus': [
																	'266880',
																	'%d'
																],
																'tree_decl_minimal.uid': [
																	'1982',
																	'%d'
																],
																'tree_decl_common.flags': [
																	'00004000009400',
																	'%014llx'
																],
																'tree_decl_common.pt_uid': [
																	'-1',
																	'%d'
																],
																'tree_label_decl.label_decl_uid': [
																	'-1',
																	'%d'
																],
																'tree_label_decl.eh_landing_pad_nr': [
																	'0',
																	'%d'
																],
																'tree_typed.$type': [
																	'ref': '00007f2bb507af18'
																],
																'tree_common.$chain': [
																],
																'tree_decl_minimal.$name': [
																],
																'tree_decl_minimal.$context': [
																	'ref': '00007f2bb519d200'
																],
																'tree_decl_common.$size': [
																],
																'tree_decl_common.$size_unit': [
																],
																'tree_decl_common.$initial': [
																],
																'tree_decl_common.$attributes': [
																],
																'tree_decl_common.$abstract_origin': [
																]
															]
														]
													]
												]
											],
											[
												'selector': [
													'LABEL_EXPR',
													'%s'
												],
												'len': [
													'1',
													'%d'
												],
												'tcc': [
													'tcc_statement',
													'%s'
												],
												'tnl': [
													'tnl_exp',
													'%s'
												],
												'addr': [
													'00007f2bb51ac3a0',
													'%x'
												],
												'tree_base.code': [
													'0091',
													'%04x'
												],
												'tree_base.flags': [
													'0001',
													'%04x'
												],
												'tree_base.special': [
													'00000000',
													'%08x'
												],
												'tree_exp.locus': [
													'0',
													'%d'
												],
												'tree_typed.$type': [
													'ref': '00007f2bb507af18'
												],
												'tree_exp.$operands[i]': [
													[
														'ref': '00007f2bb6745100'
													]
												]
											]
										]
									],
									[
										'selector': [
											'RETURN_EXPR',
											'%s'
										],
										'len': [
											'1',
											'%d'
										],
										'tcc': [
											'tcc_statement',
											'%s'
										],
										'tnl': [
											'tnl_exp',
											'%s'
										],
										'addr': [
											'00007f2bb51ac2e0',
											'%x'
										],
										'tree_base.code': [
											'0093',
											'%04x'
										],
										'tree_base.flags': [
											'0001',
											'%04x'
										],
										'tree_base.special': [
											'00000000',
											'%08x'
										],
										'tree_exp.locus': [
											'-2147483644',
											'%d'
										],
										'tree_typed.$type': [
											'ref': '00007f2bb507af18'
										],
										'tree_exp.$operands[i]': [
											[
												'selector': [
													'MODIFY_EXPR',
													'%s'
												],
												'len': [
													'2',
													'%d'
												],
												'tcc': [
													'tcc_expression',
													'%s'
												],
												'tnl': [
													'tnl_exp',
													'%s'
												],
												'addr': [
													'00007f2bb5197f28',
													'%x'
												],
												'tree_base.code': [
													'003a',
													'%04x'
												],
												'tree_base.flags': [
													'0001',
													'%04x'
												],
												'tree_base.special': [
													'00000000',
													'%08x'
												],
												'tree_exp.locus': [
													'-2147483644',
													'%d'
												],
												'tree_typed.$type': [
													'ref': '00007f2bb507a690'
												],
												'tree_exp.$operands[i]': [
													[
														'selector': [
															'RESULT_DECL',
															'%s'
														],
														'len': [
															'0',
															'%d'
														],
														'tcc': [
															'tcc_declaration',
															'%s'
														],
														'tnl': [
															'tnl_result_decl',
															'%s'
														],
														'addr': [
															'00007f2bb506cb40',
															'%x'
														],
														'tree_base.code': [
															'0028',
															'%04x'
														],
														'tree_base.flags': [
															'0000',
															'%04x'
														],
														'tree_base.special': [
															'00000100',
															'%08x'
														],
														'tree_decl_minimal.locus': [
															'258915',
															'%d'
														],
														'tree_decl_minimal.uid': [
															'1980',
															'%d'
														],
														'tree_decl_common.flags': [
															'00018000001411',
															'%014llx'
														],
														'tree_decl_common.pt_uid': [
															'-1',
															'%d'
														],
														'tree_typed.$type': [
															'ref': '00007f2bb507a690'
														],
														'tree_common.$chain': [
														],
														'tree_decl_minimal.$name': [
														],
														'tree_decl_minimal.$context': [
															'ref': '00007f2bb519d200'
														],
														'tree_decl_common.$size': [
															'ref': '00007f2bb505ef90'
														],
														'tree_decl_common.$size_unit': [
															'ref': '00007f2bb505efa8'
														],
														'tree_decl_common.$initial': [
														],
														'tree_decl_common.$attributes': [
														],
														'tree_decl_common.$abstract_origin': [
														]
													],
													[
														'selector': [
															'PLUS_EXPR',
															'%s'
														],
														'len': [
															'2',
															'%d'
														],
														'tcc': [
															'tcc_binary',
															'%s'
														],
														'tnl': [
															'tnl_exp',
															'%s'
														],
														'addr': [
															'00007f2bb5197f00',
															'%x'
														],
														'tree_base.code': [
															'0047',
															'%04x'
														],
														'tree_base.flags': [
															'0000',
															'%04x'
														],
														'tree_base.special': [
															'00000000',
															'%08x'
														],
														'tree_exp.locus': [
															'-2147483644',
															'%d'
														],
														'tree_typed.$type': [
															'ref': '00007f2bb507a690'
														],
														'tree_exp.$operands[i]': [
															[
																'selector': [
																	'NOP_EXPR',
																	'%s'
																],
																'len': [
																	'1',
																	'%d'
																],
																'tcc': [
																	'tcc_unary',
																	'%s'
																],
																'tnl': [
																	'tnl_exp',
																	'%s'
																],
																'addr': [
																	'00007f2bb51ac2c0',
																	'%x'
																],
																'tree_base.code': [
																	'007f',
																	'%04x'
																],
																'tree_base.flags': [
																	'0000',
																	'%04x'
																],
																'tree_base.special': [
																	'00000000',
																	'%08x'
																],
																'tree_exp.locus': [
																	'-2147483645',
																	'%d'
																],
																'tree_typed.$type': [
																	'ref': '00007f2bb507a690'
																],
																'tree_exp.$operands[i]': [
																	[
																		'selector': [
																			'MULT_EXPR',
																			'%s'
																		],
																		'len': [
																			'2',
																			'%d'
																		],
																		'tcc': [
																			'tcc_binary',
																			'%s'
																		],
																		'tnl': [
																			'tnl_exp',
																			'%s'
																		],
																		'addr': [
																			'00007f2bb5197eb0',
																			'%x'
																		],
																		'tree_base.code': [
																			'0049',
																			'%04x'
																		],
																		'tree_base.flags': [
																			'0000',
																			'%04x'
																		],
																		'tree_base.special': [
																			'00000000',
																			'%08x'
																		],
																		'tree_exp.locus': [
																			'-2147483645',
																			'%d'
																		],
																		'tree_typed.$type': [
																			'ref': '00007f2bb507a5e8'
																		],
																		'tree_exp.$operands[i]': [
																			[
																				'ref': '00007f2bb506dbd0'
																			],
																			[
																				'selector': [
																					'INTEGER_CST',
																					'%s'
																				],
																				'len': [
																					'0',
																					'%d'
																				],
																				'tcc': [
																					'tcc_constant',
																					'%s'
																				],
																				'tnl': [
																					'tnl_int_cst',
																					'%s'
																				],
																				'addr': [
																					'00007f2bb507e438',
																					'%x'
																				],
																				'tree_base.code': [
																					'001a',
																					'%04x'
																				],
																				'tree_base.flags': [
																					'0002',
																					'%04x'
																				],
																				'tree_base.special': [
																					'00010101',
																					'%08x'
																				],
																				'tree_typed.$type': [
																					'ref': '00007f2bb507a5e8'
																				]
																			]
																		]
																	]
																]
															],
															[
																'ref': '00007f2bb6745080'
															]
														]
													]
												]
											]
										]
									]
								]
							],
							[
								'ref': '00007f2bb51a0420'
							]
						]
					],
					'tree_function_decl.$vindex': [
					]
				]
			]
		]
	]
]
