A symbol_table
I symbol_table.cgraph_count [%d]: 1
I symbol_table.cgraph_max_uid [%d]: 2
I symbol_table.cgraph_max_summary_id [%d]: 0
I symbol_table.edges_count [%d]: 0
I symbol_table.edges_max_uid [%d]: 1
I symbol_table.edges_max_summary_id [%d]: 0
I symbol_table.symbol_suffix_separator [%02x]: d5121a
I symbol_table.order [%d]: 1
I symbol_table.max_unit [%d]: 0
I symbol_table.global_info_ready [%d]: 0
I symbol_table.state [%d]: 0
I symbol_table.function_flags_ready [%d]: 0
I symbol_table.cpp_implicit_aliases_done [%d]: 0
B symtab_node
J symtab_node.type [%02x]: 01
J symtab_node.resolution [%02x]: 00
J symtab_node.flags [%06x]: af010c01
I symtab_node.order [%d]: 0
E symtab_node.$decl {
	C SELECTOR 33 FUNCTION_DECL  LEN 0  TCC 3 tcc_declaration  TNL 23 tnl_function_decl  (00007f2bb519d200)
	J tree_base.code [%04x]: 0021
	J tree_base.flags [%04x]: 0c00
	J tree_base.special [%08x]: 00000000
	I tree_decl_minimal.locus [%d]: 258915
	I tree_decl_minimal.uid [%d]: 1979
	J tree_decl_common.flags [%014llx]: 0001000000000f
	I tree_decl_common.pt_uid [%d]: -1
	J tree_decl_with_vis.flags [%06lx]: 000000
	I tree_function_decl.function_code [%d]: 0
	J tree_function_decl.flags [%06lx]: afafafaf00000800
	E tree_typed.$type {
		C SELECTOR 21 FUNCTION_TYPE  LEN 0  TCC 2 tcc_type  TNL 27 tnl_type_non_common  (00007f2bb508ec78)
	F tree_typed.$type }
	E tree_common.$chain {
	F tree_common.$chain }
	E tree_decl_minimal.$name {
		C SELECTOR 1 IDENTIFIER_NODE  LEN 0  TCC 0 tcc_exceptional  TNL 10 tnl_identifier  (00007f2bb51ae2d0)
		J tree_base.code [%04x]: 0001
		J tree_base.flags [%04x]: 0000
		J tree_base.special [%08x]: 00000000
		J tree_identifier.id.len [%d]: 4
		J tree_identifier.id.hash_value [%d]: -3964053
		J tree_identifier.id.str[i] [%d]: 100
		J tree_identifier.id.str[i] [%d]: 101
		J tree_identifier.id.str[i] [%d]: 109
		J tree_identifier.id.str[i] [%d]: 111
		E tree_typed.$type {
		F tree_typed.$type }
		E tree_common.$chain {
		F tree_common.$chain }
	F tree_decl_minimal.$name }
	E tree_decl_minimal.$context {
		C SELECTOR 46 TRANSLATION_UNIT_DECL  LEN 0  TCC 3 tcc_declaration  TNL 24 tnl_translation_unit_decl  (00007f2bb506cbb8)
		J tree_base.code [%04x]: 002e
		J tree_base.flags [%04x]: 0000
		J tree_base.special [%08x]: 00000000
		I tree_decl_minimal.locus [%d]: 0
		I tree_decl_minimal.uid [%d]: 1985
		J tree_decl_common.flags [%014llx]: 00004000000000
		I tree_decl_common.pt_uid [%d]: -1
		I tree_translation_unit_decl.language [%s]: GNU C17
		E tree_typed.$type {
		F tree_typed.$type }
		E tree_common.$chain {
		F tree_common.$chain }
		E tree_decl_minimal.$name {
			C SELECTOR 1 IDENTIFIER_NODE  LEN 0  TCC 0 tcc_exceptional  TNL 10 tnl_identifier  (00007f2bb51ae3c0)
			J tree_base.code [%04x]: 0001
			J tree_base.flags [%04x]: 0000
			J tree_base.special [%08x]: 00000000
			J tree_identifier.id.len [%d]: 6
			J tree_identifier.id.hash_value [%d]: -614787186
			J tree_identifier.id.str[i] [%d]: 100
			J tree_identifier.id.str[i] [%d]: 101
			J tree_identifier.id.str[i] [%d]: 109
			J tree_identifier.id.str[i] [%d]: 111
			J tree_identifier.id.str[i] [%d]: 46
			J tree_identifier.id.str[i] [%d]: 99
			E tree_typed.$type {
			F tree_typed.$type }
			E tree_common.$chain {
			F tree_common.$chain }
		F tree_decl_minimal.$name }
		E tree_decl_minimal.$context {
		F tree_decl_minimal.$context }
		E tree_decl_common.$size {
		F tree_decl_common.$size }
		E tree_decl_common.$size_unit {
		F tree_decl_common.$size_unit }
		E tree_decl_common.$initial {
			C SELECTOR 4 BLOCK  LEN 0  TCC 0 tcc_exceptional  TNL 32 tnl_block  (00007f2bb51a0480)
			J tree_base.code [%04x]: 0004
			J tree_base.flags [%04x]: 0100
			J tree_base.special [%08x]: 00000000
			I tree_block.block_num [%d]: 0
			I tree_block.locus [%d]: 0
			I tree_block.end_locus [%d]: 0
			I tree_block.die [%016llx]: 0000000000000000
			E tree_block.$chain {
			F tree_block.$chain }
			E tree_block.$vars {
			F tree_block.$vars }
			E tree_block.$subblocks {
			F tree_block.$subblocks }
			E tree_block.$supercontext {
				D REF  (00007f2bb506cbb8)
			F tree_block.$supercontext }
			E tree_block.$abstract_origin {
			F tree_block.$abstract_origin }
			E tree_block.$fragment_origin {
			F tree_block.$fragment_origin }
			E tree_block.$fragment_chain {
			F tree_block.$fragment_chain }
		F tree_decl_common.$initial }
		E tree_decl_common.$attributes {
		F tree_decl_common.$attributes }
		E tree_decl_common.$abstract_origin {
		F tree_decl_common.$abstract_origin }
	F tree_decl_minimal.$context }
	E tree_decl_common.$size {
	F tree_decl_common.$size }
	E tree_decl_common.$size_unit {
	F tree_decl_common.$size_unit }
	E tree_decl_common.$initial {
		C SELECTOR 4 BLOCK  LEN 0  TCC 0 tcc_exceptional  TNL 32 tnl_block  (00007f2bb51a0420)
		J tree_base.code [%04x]: 0004
		J tree_base.flags [%04x]: 0100
		J tree_base.special [%08x]: 00000000
		I tree_block.block_num [%d]: 0
		I tree_block.locus [%d]: 0
		I tree_block.end_locus [%d]: 0
		I tree_block.die [%016llx]: 0000000000000000
		E tree_block.$chain {
		F tree_block.$chain }
		E tree_block.$vars {
			C SELECTOR 36 VAR_DECL  LEN 0  TCC 3 tcc_declaration  TNL 17 tnl_var_decl  (00007f2bb506dbd0)
			J tree_base.code [%04x]: 0024
			J tree_base.flags [%04x]: 0100
			J tree_base.special [%08x]: 00000000
			I tree_decl_minimal.locus [%d]: 262976
			I tree_decl_minimal.uid [%d]: 1981
			J tree_decl_common.flags [%014llx]: 00018040000011
			I tree_decl_common.pt_uid [%d]: -1
			J tree_decl_with_vis.flags [%06lx]: 000000
			E tree_typed.$type {
				C SELECTOR 8 INTEGER_TYPE  LEN 0  TCC 2 tcc_type  TNL 27 tnl_type_non_common  (00007f2bb507a5e8)
			F tree_typed.$type }
			E tree_common.$chain {
			F tree_common.$chain }
			E tree_decl_minimal.$name {
				C SELECTOR 1 IDENTIFIER_NODE  LEN 0  TCC 0 tcc_exceptional  TNL 10 tnl_identifier  (00007f2bb51ae370)
				J tree_base.code [%04x]: 0001
				J tree_base.flags [%04x]: 0000
				J tree_base.special [%08x]: 00000000
				J tree_identifier.id.len [%d]: 1
				J tree_identifier.id.hash_value [%d]: -14
				J tree_identifier.id.str[i] [%d]: 98
				E tree_typed.$type {
				F tree_typed.$type }
				E tree_common.$chain {
				F tree_common.$chain }
			F tree_decl_minimal.$name }
			E tree_decl_minimal.$context {
				D REF  (00007f2bb519d200)
			F tree_decl_minimal.$context }
			E tree_decl_common.$size {
				C SELECTOR 26 INTEGER_CST  LEN 0  TCC 1 tcc_constant  TNL 3 tnl_int_cst  (00007f2bb505ef90)
				J tree_base.code [%04x]: 001a
				J tree_base.flags [%04x]: 0002
				J tree_base.special [%08x]: 00010101
				E tree_typed.$type {
					C SELECTOR 8 INTEGER_TYPE  LEN 0  TCC 2 tcc_type  TNL 27 tnl_type_non_common  (00007f2bb507a0a8)
				F tree_typed.$type }
			F tree_decl_common.$size }
			E tree_decl_common.$size_unit {
				C SELECTOR 26 INTEGER_CST  LEN 0  TCC 1 tcc_constant  TNL 3 tnl_int_cst  (00007f2bb505efa8)
				J tree_base.code [%04x]: 001a
				J tree_base.flags [%04x]: 0002
				J tree_base.special [%08x]: 00010101
				E tree_typed.$type {
					C SELECTOR 8 INTEGER_TYPE  LEN 0  TCC 2 tcc_type  TNL 27 tnl_type_non_common  (00007f2bb507a000)
				F tree_typed.$type }
			F tree_decl_common.$size_unit }
			E tree_decl_common.$initial {
				C SELECTOR 26 INTEGER_CST  LEN 0  TCC 1 tcc_constant  TNL 3 tnl_int_cst  (00007f2bb507e108)
				J tree_base.code [%04x]: 001a
				J tree_base.flags [%04x]: 0002
				J tree_base.special [%08x]: 00010101
				E tree_typed.$type {
					D REF  (00007f2bb507a5e8)
				F tree_typed.$type }
			F tree_decl_common.$initial }
			E tree_decl_common.$attributes {
			F tree_decl_common.$attributes }
			E tree_decl_common.$abstract_origin {
			F tree_decl_common.$abstract_origin }
			E tree_decl_with_vis.$assembler_name {
			F tree_decl_with_vis.$assembler_name }
		F tree_block.$vars }
		E tree_block.$subblocks {
		F tree_block.$subblocks }
		E tree_block.$supercontext {
			D REF  (00007f2bb519d200)
		F tree_block.$supercontext }
		E tree_block.$abstract_origin {
		F tree_block.$abstract_origin }
		E tree_block.$fragment_origin {
		F tree_block.$fragment_origin }
		E tree_block.$fragment_chain {
		F tree_block.$fragment_chain }
	F tree_decl_common.$initial }
	E tree_decl_common.$attributes {
	F tree_decl_common.$attributes }
	E tree_decl_common.$abstract_origin {
	F tree_decl_common.$abstract_origin }
	E tree_decl_with_vis.$assembler_name {
		D REF  (00007f2bb51ae2d0)
	F tree_decl_with_vis.$assembler_name }
	E tree_function_decl.$arguments {
		C SELECTOR 38 PARM_DECL  LEN 0  TCC 3 tcc_declaration  TNL 15 tnl_parm_decl  (00007f2bb6745080)
		J tree_base.code [%04x]: 0026
		J tree_base.flags [%04x]: 0100
		J tree_base.special [%08x]: 00000100
		I tree_decl_minimal.locus [%d]: -2147483648
		I tree_decl_minimal.uid [%d]: 1978
		J tree_decl_common.flags [%014llx]: 00018040000011
		I tree_decl_common.pt_uid [%d]: -1
		E tree_typed.$type {
			C SELECTOR 8 INTEGER_TYPE  LEN 0  TCC 2 tcc_type  TNL 27 tnl_type_non_common  (00007f2bb507a690)
		F tree_typed.$type }
		E tree_common.$chain {
		F tree_common.$chain }
		E tree_decl_minimal.$name {
			C SELECTOR 1 IDENTIFIER_NODE  LEN 0  TCC 0 tcc_exceptional  TNL 10 tnl_identifier  (00007f2bb51ae320)
			J tree_base.code [%04x]: 0001
			J tree_base.flags [%04x]: 0000
			J tree_base.special [%08x]: 00000000
			J tree_identifier.id.len [%d]: 1
			J tree_identifier.id.hash_value [%d]: -15
			J tree_identifier.id.str[i] [%d]: 97
			E tree_typed.$type {
			F tree_typed.$type }
			E tree_common.$chain {
			F tree_common.$chain }
		F tree_decl_minimal.$name }
		E tree_decl_minimal.$context {
			D REF  (00007f2bb519d200)
		F tree_decl_minimal.$context }
		E tree_decl_common.$size {
			D REF  (00007f2bb505ef90)
		F tree_decl_common.$size }
		E tree_decl_common.$size_unit {
			D REF  (00007f2bb505efa8)
		F tree_decl_common.$size_unit }
		E tree_decl_common.$initial {
			D REF  (00007f2bb507a690)
		F tree_decl_common.$initial }
		E tree_decl_common.$attributes {
		F tree_decl_common.$attributes }
		E tree_decl_common.$abstract_origin {
		F tree_decl_common.$abstract_origin }
	F tree_function_decl.$arguments }
	E tree_function_decl.$personality {
	F tree_function_decl.$personality }
	E tree_function_decl.$function_specific_target {
	F tree_function_decl.$function_specific_target }
	E tree_function_decl.$function_specific_optimization {
	F tree_function_decl.$function_specific_optimization }
	E tree_function_decl.$saved_tree {
		C SELECTOR 66 BIND_EXPR  LEN 3  TCC 10 tcc_expression  TNL 30 tnl_exp  (00007f2bb51bf690)
		J tree_base.code [%04x]: 0042
		J tree_base.flags [%04x]: 0001
		J tree_base.special [%08x]: 00000000
		I tree_exp.locus [%d]: 259584
		E tree_typed.$type {
			C SELECTOR 20 VOID_TYPE  LEN 0  TCC 2 tcc_type  TNL 27 tnl_type_non_common  (00007f2bb507af18)
		F tree_typed.$type }
		E tree_exp.$operands[i] {
			D REF  (00007f2bb506dbd0)
		F tree_exp.$operands[i] }
		E tree_exp.$operands[i] {
			C SELECTOR 159 STATEMENT_LIST  LEN 0  TCC 0 tcc_exceptional  TNL 34 tnl_statement_list  (00007f2bb51ac220)
			J tree_base.code [%04x]: 009f
			J tree_base.flags [%04x]: 0001
			J tree_base.special [%08x]: 00000000
			E tree_typed.$type {
				D REF  (00007f2bb507af18)
			F tree_typed.$type }
			G $tree_statement_list.nodes[i] {
				C SELECTOR 144 DECL_EXPR  LEN 1  TCC 8 tcc_statement  TNL 30 tnl_exp  (00007f2bb51ac240)
				J tree_base.code [%04x]: 0090
				J tree_base.flags [%04x]: 0001
				J tree_base.special [%08x]: 00000000
				I tree_exp.locus [%d]: 262976
				E tree_typed.$type {
					D REF  (00007f2bb507af18)
				F tree_typed.$type }
				E tree_exp.$operands[i] {
					D REF  (00007f2bb506dbd0)
				F tree_exp.$operands[i] }
			H $tree_statement_list.nodes[i] }
			G $tree_statement_list.nodes[i] {
				C SELECTOR 159 STATEMENT_LIST  LEN 0  TCC 0 tcc_exceptional  TNL 34 tnl_statement_list  (00007f2bb51ac200)
				J tree_base.code [%04x]: 009f
				J tree_base.flags [%04x]: 0001
				J tree_base.special [%08x]: 00000000
				E tree_typed.$type {
					D REF  (00007f2bb507af18)
				F tree_typed.$type }
				G $tree_statement_list.nodes[i] {
					C SELECTOR 146 GOTO_EXPR  LEN 1  TCC 8 tcc_statement  TNL 30 tnl_exp  (00007f2bb51ac340)
					J tree_base.code [%04x]: 0092
					J tree_base.flags [%04x]: 0001
					J tree_base.special [%08x]: 00000000
					I tree_exp.locus [%d]: 266880
					E tree_typed.$type {
						D REF  (00007f2bb507af18)
					F tree_typed.$type }
					E tree_exp.$operands[i] {
						C SELECTOR 34 LABEL_DECL  LEN 0  TCC 3 tcc_declaration  TNL 19 tnl_label_decl  (00007f2bb6745180)
						J tree_base.code [%04x]: 0022
						J tree_base.flags [%04x]: 0100
						J tree_base.special [%08x]: 00000000
						I tree_decl_minimal.locus [%d]: 266880
						I tree_decl_minimal.uid [%d]: 1983
						J tree_decl_common.flags [%014llx]: 00004000011400
						I tree_decl_common.pt_uid [%d]: -1
						I tree_label_decl.label_decl_uid [%d]: -1
						I tree_label_decl.eh_landing_pad_nr [%d]: 0
						E tree_typed.$type {
							D REF  (00007f2bb507af18)
						F tree_typed.$type }
						E tree_common.$chain {
						F tree_common.$chain }
						E tree_decl_minimal.$name {
						F tree_decl_minimal.$name }
						E tree_decl_minimal.$context {
							D REF  (00007f2bb519d200)
						F tree_decl_minimal.$context }
						E tree_decl_common.$size {
						F tree_decl_common.$size }
						E tree_decl_common.$size_unit {
						F tree_decl_common.$size_unit }
						E tree_decl_common.$initial {
						F tree_decl_common.$initial }
						E tree_decl_common.$attributes {
						F tree_decl_common.$attributes }
						E tree_decl_common.$abstract_origin {
						F tree_decl_common.$abstract_origin }
					F tree_exp.$operands[i] }
				H $tree_statement_list.nodes[i] }
				G $tree_statement_list.nodes[i] {
					C SELECTOR 145 LABEL_EXPR  LEN 1  TCC 8 tcc_statement  TNL 30 tnl_exp  (00007f2bb51ac300)
					J tree_base.code [%04x]: 0091
					J tree_base.flags [%04x]: 0001
					J tree_base.special [%08x]: 00000000
					I tree_exp.locus [%d]: 0
					E tree_typed.$type {
						D REF  (00007f2bb507af18)
					F tree_typed.$type }
					E tree_exp.$operands[i] {
						C SELECTOR 34 LABEL_DECL  LEN 0  TCC 3 tcc_declaration  TNL 19 tnl_label_decl  (00007f2bb6745200)
						J tree_base.code [%04x]: 0022
						J tree_base.flags [%04x]: 0000
						J tree_base.special [%08x]: 00000000
						I tree_decl_minimal.locus [%d]: 266880
						I tree_decl_minimal.uid [%d]: 1984
						J tree_decl_common.flags [%014llx]: 00004000001400
						I tree_decl_common.pt_uid [%d]: -1
						I tree_label_decl.label_decl_uid [%d]: -1
						I tree_label_decl.eh_landing_pad_nr [%d]: 0
						E tree_typed.$type {
							D REF  (00007f2bb507af18)
						F tree_typed.$type }
						E tree_common.$chain {
						F tree_common.$chain }
						E tree_decl_minimal.$name {
						F tree_decl_minimal.$name }
						E tree_decl_minimal.$context {
							D REF  (00007f2bb519d200)
						F tree_decl_minimal.$context }
						E tree_decl_common.$size {
						F tree_decl_common.$size }
						E tree_decl_common.$size_unit {
						F tree_decl_common.$size_unit }
						E tree_decl_common.$initial {
						F tree_decl_common.$initial }
						E tree_decl_common.$attributes {
						F tree_decl_common.$attributes }
						E tree_decl_common.$abstract_origin {
						F tree_decl_common.$abstract_origin }
					F tree_exp.$operands[i] }
				H $tree_statement_list.nodes[i] }
				G $tree_statement_list.nodes[i] {
					C SELECTOR 58 MODIFY_EXPR  LEN 2  TCC 10 tcc_expression  TNL 30 tnl_exp  (00007f2bb5197e38)
					J tree_base.code [%04x]: 003a
					J tree_base.flags [%04x]: 0041
					J tree_base.special [%08x]: 00000000
					I tree_exp.locus [%d]: -2147483646
					E tree_typed.$type {
						D REF  (00007f2bb507a5e8)
					F tree_typed.$type }
					E tree_exp.$operands[i] {
						D REF  (00007f2bb506dbd0)
					F tree_exp.$operands[i] }
					E tree_exp.$operands[i] {
						C SELECTOR 94 LSHIFT_EXPR  LEN 2  TCC 7 tcc_binary  TNL 30 tnl_exp  (00007f2bb5197e10)
						J tree_base.code [%04x]: 005e
						J tree_base.flags [%04x]: 0000
						J tree_base.special [%08x]: 00000000
						I tree_exp.locus [%d]: 267202
						E tree_typed.$type {
							D REF  (00007f2bb507a5e8)
						F tree_typed.$type }
						E tree_exp.$operands[i] {
							D REF  (00007f2bb506dbd0)
						F tree_exp.$operands[i] }
						E tree_exp.$operands[i] {
							D REF  (00007f2bb507e108)
						F tree_exp.$operands[i] }
					F tree_exp.$operands[i] }
				H $tree_statement_list.nodes[i] }
				G $tree_statement_list.nodes[i] {
					C SELECTOR 145 LABEL_EXPR  LEN 1  TCC 8 tcc_statement  TNL 30 tnl_exp  (00007f2bb51ac380)
					J tree_base.code [%04x]: 0091
					J tree_base.flags [%04x]: 0001
					J tree_base.special [%08x]: 00000000
					I tree_exp.locus [%d]: 0
					E tree_typed.$type {
						D REF  (00007f2bb507af18)
					F tree_typed.$type }
					E tree_exp.$operands[i] {
						D REF  (00007f2bb6745180)
					F tree_exp.$operands[i] }
				H $tree_statement_list.nodes[i] }
				G $tree_statement_list.nodes[i] {
					C SELECTOR 61 COND_EXPR  LEN 3  TCC 10 tcc_expression  TNL 30 tnl_exp  (00007f2bb51bf6c0)
					J tree_base.code [%04x]: 003d
					J tree_base.flags [%04x]: 0001
					J tree_base.special [%08x]: 00000000
					I tree_exp.locus [%d]: -2147483647
					E tree_typed.$type {
						D REF  (00007f2bb507af18)
					F tree_typed.$type }
					E tree_exp.$operands[i] {
						C SELECTOR 108 LT_EXPR  LEN 2  TCC 5 tcc_comparison  TNL 30 tnl_exp  (00007f2bb5197de8)
						J tree_base.code [%04x]: 006c
						J tree_base.flags [%04x]: 0000
						J tree_base.special [%08x]: 00000000
						I tree_exp.locus [%d]: -2147483647
						E tree_typed.$type {
							D REF  (00007f2bb507a5e8)
						F tree_typed.$type }
						E tree_exp.$operands[i] {
							C SELECTOR 127 NOP_EXPR  LEN 1  TCC 6 tcc_unary  TNL 30 tnl_exp  (00007f2bb51ac280)
							J tree_base.code [%04x]: 007f
							J tree_base.flags [%04x]: 0000
							J tree_base.special [%08x]: 00000000
							I tree_exp.locus [%d]: 0
							E tree_typed.$type {
								D REF  (00007f2bb507a690)
							F tree_typed.$type }
							E tree_exp.$operands[i] {
								D REF  (00007f2bb506dbd0)
							F tree_exp.$operands[i] }
						F tree_exp.$operands[i] }
						E tree_exp.$operands[i] {
							D REF  (00007f2bb6745080)
						F tree_exp.$operands[i] }
					F tree_exp.$operands[i] }
					E tree_exp.$operands[i] {
						C SELECTOR 146 GOTO_EXPR  LEN 1  TCC 8 tcc_statement  TNL 30 tnl_exp  (00007f2bb51ac320)
						J tree_base.code [%04x]: 0092
						J tree_base.flags [%04x]: 0001
						J tree_base.special [%08x]: 00000000
						I tree_exp.locus [%d]: 0
						E tree_typed.$type {
							D REF  (00007f2bb507af18)
						F tree_typed.$type }
						E tree_exp.$operands[i] {
							D REF  (00007f2bb6745200)
						F tree_exp.$operands[i] }
					F tree_exp.$operands[i] }
					E tree_exp.$operands[i] {
						C SELECTOR 146 GOTO_EXPR  LEN 1  TCC 8 tcc_statement  TNL 30 tnl_exp  (00007f2bb51ac360)
						J tree_base.code [%04x]: 0092
						J tree_base.flags [%04x]: 0001
						J tree_base.special [%08x]: 00000000
						I tree_exp.locus [%d]: 0
						E tree_typed.$type {
							D REF  (00007f2bb507af18)
						F tree_typed.$type }
						E tree_exp.$operands[i] {
							C SELECTOR 34 LABEL_DECL  LEN 0  TCC 3 tcc_declaration  TNL 19 tnl_label_decl  (00007f2bb6745100)
							J tree_base.code [%04x]: 0022
							J tree_base.flags [%04x]: 0100
							J tree_base.special [%08x]: 00000000
							I tree_decl_minimal.locus [%d]: 266880
							I tree_decl_minimal.uid [%d]: 1982
							J tree_decl_common.flags [%014llx]: 00004000009400
							I tree_decl_common.pt_uid [%d]: -1
							I tree_label_decl.label_decl_uid [%d]: -1
							I tree_label_decl.eh_landing_pad_nr [%d]: 0
							E tree_typed.$type {
								D REF  (00007f2bb507af18)
							F tree_typed.$type }
							E tree_common.$chain {
							F tree_common.$chain }
							E tree_decl_minimal.$name {
							F tree_decl_minimal.$name }
							E tree_decl_minimal.$context {
								D REF  (00007f2bb519d200)
							F tree_decl_minimal.$context }
							E tree_decl_common.$size {
							F tree_decl_common.$size }
							E tree_decl_common.$size_unit {
							F tree_decl_common.$size_unit }
							E tree_decl_common.$initial {
							F tree_decl_common.$initial }
							E tree_decl_common.$attributes {
							F tree_decl_common.$attributes }
							E tree_decl_common.$abstract_origin {
							F tree_decl_common.$abstract_origin }
						F tree_exp.$operands[i] }
					F tree_exp.$operands[i] }
				H $tree_statement_list.nodes[i] }
				G $tree_statement_list.nodes[i] {
					C SELECTOR 145 LABEL_EXPR  LEN 1  TCC 8 tcc_statement  TNL 30 tnl_exp  (00007f2bb51ac3a0)
					J tree_base.code [%04x]: 0091
					J tree_base.flags [%04x]: 0001
					J tree_base.special [%08x]: 00000000
					I tree_exp.locus [%d]: 0
					E tree_typed.$type {
						D REF  (00007f2bb507af18)
					F tree_typed.$type }
					E tree_exp.$operands[i] {
						D REF  (00007f2bb6745100)
					F tree_exp.$operands[i] }
				H $tree_statement_list.nodes[i] }
			H $tree_statement_list.nodes[i] }
			G $tree_statement_list.nodes[i] {
				C SELECTOR 147 RETURN_EXPR  LEN 1  TCC 8 tcc_statement  TNL 30 tnl_exp  (00007f2bb51ac2e0)
				J tree_base.code [%04x]: 0093
				J tree_base.flags [%04x]: 0001
				J tree_base.special [%08x]: 00000000
				I tree_exp.locus [%d]: -2147483644
				E tree_typed.$type {
					D REF  (00007f2bb507af18)
				F tree_typed.$type }
				E tree_exp.$operands[i] {
					C SELECTOR 58 MODIFY_EXPR  LEN 2  TCC 10 tcc_expression  TNL 30 tnl_exp  (00007f2bb5197f28)
					J tree_base.code [%04x]: 003a
					J tree_base.flags [%04x]: 0001
					J tree_base.special [%08x]: 00000000
					I tree_exp.locus [%d]: -2147483644
					E tree_typed.$type {
						D REF  (00007f2bb507a690)
					F tree_typed.$type }
					E tree_exp.$operands[i] {
						C SELECTOR 40 RESULT_DECL  LEN 0  TCC 3 tcc_declaration  TNL 20 tnl_result_decl  (00007f2bb506cb40)
						J tree_base.code [%04x]: 0028
						J tree_base.flags [%04x]: 0000
						J tree_base.special [%08x]: 00000100
						I tree_decl_minimal.locus [%d]: 258915
						I tree_decl_minimal.uid [%d]: 1980
						J tree_decl_common.flags [%014llx]: 00018000001411
						I tree_decl_common.pt_uid [%d]: -1
						E tree_typed.$type {
							D REF  (00007f2bb507a690)
						F tree_typed.$type }
						E tree_common.$chain {
						F tree_common.$chain }
						E tree_decl_minimal.$name {
						F tree_decl_minimal.$name }
						E tree_decl_minimal.$context {
							D REF  (00007f2bb519d200)
						F tree_decl_minimal.$context }
						E tree_decl_common.$size {
							D REF  (00007f2bb505ef90)
						F tree_decl_common.$size }
						E tree_decl_common.$size_unit {
							D REF  (00007f2bb505efa8)
						F tree_decl_common.$size_unit }
						E tree_decl_common.$initial {
						F tree_decl_common.$initial }
						E tree_decl_common.$attributes {
						F tree_decl_common.$attributes }
						E tree_decl_common.$abstract_origin {
						F tree_decl_common.$abstract_origin }
					F tree_exp.$operands[i] }
					E tree_exp.$operands[i] {
						C SELECTOR 71 PLUS_EXPR  LEN 2  TCC 7 tcc_binary  TNL 30 tnl_exp  (00007f2bb5197f00)
						J tree_base.code [%04x]: 0047
						J tree_base.flags [%04x]: 0000
						J tree_base.special [%08x]: 00000000
						I tree_exp.locus [%d]: -2147483644
						E tree_typed.$type {
							D REF  (00007f2bb507a690)
						F tree_typed.$type }
						E tree_exp.$operands[i] {
							C SELECTOR 127 NOP_EXPR  LEN 1  TCC 6 tcc_unary  TNL 30 tnl_exp  (00007f2bb51ac2c0)
							J tree_base.code [%04x]: 007f
							J tree_base.flags [%04x]: 0000
							J tree_base.special [%08x]: 00000000
							I tree_exp.locus [%d]: -2147483645
							E tree_typed.$type {
								D REF  (00007f2bb507a690)
							F tree_typed.$type }
							E tree_exp.$operands[i] {
								C SELECTOR 73 MULT_EXPR  LEN 2  TCC 7 tcc_binary  TNL 30 tnl_exp  (00007f2bb5197eb0)
								J tree_base.code [%04x]: 0049
								J tree_base.flags [%04x]: 0000
								J tree_base.special [%08x]: 00000000
								I tree_exp.locus [%d]: -2147483645
								E tree_typed.$type {
									D REF  (00007f2bb507a5e8)
								F tree_typed.$type }
								E tree_exp.$operands[i] {
									D REF  (00007f2bb506dbd0)
								F tree_exp.$operands[i] }
								E tree_exp.$operands[i] {
									C SELECTOR 26 INTEGER_CST  LEN 0  TCC 1 tcc_constant  TNL 3 tnl_int_cst  (00007f2bb507e438)
									J tree_base.code [%04x]: 001a
									J tree_base.flags [%04x]: 0002
									J tree_base.special [%08x]: 00010101
									E tree_typed.$type {
										D REF  (00007f2bb507a5e8)
									F tree_typed.$type }
								F tree_exp.$operands[i] }
							F tree_exp.$operands[i] }
						F tree_exp.$operands[i] }
						E tree_exp.$operands[i] {
							D REF  (00007f2bb6745080)
						F tree_exp.$operands[i] }
					F tree_exp.$operands[i] }
				F tree_exp.$operands[i] }
			H $tree_statement_list.nodes[i] }
		F tree_exp.$operands[i] }
		E tree_exp.$operands[i] {
			D REF  (00007f2bb51a0420)
		F tree_exp.$operands[i] }
	F tree_function_decl.$saved_tree }
	E tree_function_decl.$vindex {
	F tree_function_decl.$vindex }
F symtab_node.$decl }
K done
